…
reviews_wordcount %>% print()
```

    ## # A tibble: 4,001 × 2
    ##    review_words min_word_count
    ##    <chr>                 <int>
    ##  1 game                   6648
    ##  2 play                   3352
    ##  3 like                   2975
    ##  4 character              2492
    ##  5 story                  2489
    ##  6 bugs                   2470
    ##  7 good                   2466
    ##  8 great                  2350
    ##  9 just                   2299
    ## 10 time                   2286
    ## # … with 3,991 more rows
…
  Vote_change2 = case_when(
    (basegame_voteup & dlc2_voteup) ~ "Remained positive",
    (basegame_voteup==TRUE & dlc2_voteup==FALSE) ~ "Changed from positive to negative",
    (basegame_voteup==FALSE & dlc2_voteup==TRUE) ~ "Changed from negative to positive",
    (basegame_voteup==FALSE & dlc2_voteup==FALSE) ~ "Remained negative"
  ),
    Vote_change12 = case_when(
    (dlc_voteup & dlc2_voteup) ~ "Remained positive",
    (dlc_voteup==TRUE & dlc2_voteup==FALSE) ~ "Changed from positive to negative",
    (dlc_voteup==FALSE & dlc2_voteup==TRUE) ~ "Changed from negative to positive",
    (dlc_voteup==FALSE & dlc2_voteup==FALSE) ~ "Remained negative"
  ))
```

    ## # A tibble: 171 × 7
    ## # Groups:   author.steamid [171]
    ##    author.steamid    basegame_voteup dlc_voteup dlc2_voteup Vote_change1        
    ##    <chr>             <lgl>           <lgl>      <lgl>       <chr>               
    ##  1 76561197960896539 FALSE           FALSE      NA          Remained negative   
    ##  2 76561197961229178 FALSE           NA         FALSE       <NA>                
    ##  3 76561197962254366 TRUE            FALSE      NA          Changed from positi…
    ##  4 76561197963548788 TRUE            NA         FALSE       <NA>                
    ##  5 76561197965318189 TRUE            TRUE       NA          Remained positive   
    ##  6 76561197968581881 TRUE            NA         FALSE       <NA>                
    ##  7 76561197970374148 TRUE            FALSE      NA          Changed from positi…
    ##  8 76561197970707099 TRUE            NA         TRUE        <NA>                
    ##  9 76561197970901695 TRUE            TRUE       NA          Remained positive   
    ## 10 76561197976511951 FALSE           NA         FALSE       <NA>                
    ## # … with 161 more rows, and 2 more variables: Vote_change2 <chr>,
    ## #   Vote_change12 <chr>
…
